1; полигон ТБО «Кучино»;Балашиха городской округ;г. Балашиха;55.734992 ;37.948112;;;"ЗАО ""Заготовитель""";5001094949;46704000;500101001;600 000;12 552 000;;;"ЗАО ""Спецгеоэкология"", ФБУ ""ЦЛАТИ по ЦФО"", ФФБУЗ ""ЦГЭМО"", ""СЗЭПН МО""Мониторинг проводится. Имеются нарушения: превышение ПДК загрязняющих веществ воздуха, несоблюдение углов заложения откосов холма, нарушение грунтовой отсыпки, оползневые проявления, нарушения обваловки, Миграция вредных веществ";В наличии: ограждение по периметру, грунт для пересыпки, очистные сооружения, системы очистки фильтрата, пожарный резервуар. Проводится очистка дренажной канавы. ;"Лицензия  № 077 030 от 16.09.2013 г. ЗАО ""Заготовитель"" ";;1964 г.;50-00012-З-00692-311014;Имеется прессовый пункт
2; полигон ТБО «Ядрово»;Волоколамский муниципальный район; г. Волоколамск;56.023225;36.043087;;;ООО «Ядрово» ;5004021191;46605101;500401001;200 000;3 280 000;;;Мониторинг проводится.  Отсутствует грунт для пересыпки, Захламленность территории мусоросортировки, Отсутствие пожарного резервуара. Соблюдение углов заложения откосов холма, ПДК загрязняющих веществ воздуха не превышены, Миграции вредных веществ нет, Оползневые проявления, нарушения обваловки не наблюдаются, последовательность заполнения котлованов не нарушена;В наличии: ограждение по периметру, очистные сооружения, системы очистки фильтрата, Проводится очистка дренажной канавы. ;Лицензия № 077 044 от 20.12.2013 г. ООО «Ядрово» ;;;50-00015-З-00377-300415;нет
3; полигон ТБО «Непейно» Дмитровский м.р.;Дмитровский муниципальный район;г. Дмитров;56.32285;37.557187;;;ООО «ЭКО-ЖИЛКОМ»;5007041140;46608101;500701001;65 000;1 450 000;ТКО;;Соблюдение углов заложения откосов холма, ПДК загрязняющих веществ воздуха не превышены, нет оползневых проявлений, нарушений обваловки, Миграция вредных веществ нет.;По периметру ограждение в виде осушительной  траншеи глубиной 2 метра, и вала высотой 3 метра. Частичное ограждение состоит из сетчатых металлических секций. Отсутствие очистных сооружений, отсутствует система очистки фильтрата, что приводит к его скоплению. Не проводится очистка дренажной канавы. Имеется пожарный резервуар.;"Лицензия № № 077 035 от 16.10.2013 г. ООО ""ЭКО-ЖИЛКОМ""";;;50-00005-З-00592-250914;Мусоросортировочный комплекс Непейно Дмитровский
4; полигон ТБО «Солопово», Зарайский м.р.;Зарайский муниципальный район;д. Солопово ;54.780199;38.753556;;;МУП «Единая служба коммунального хозяйства Зарайского района»;5014008866;46616101;501401001;20 000;13 112 000;ТКО;;"Ежегодный мониторинг.                                              ЗАО ""Спецгеоэкология»"". 
Свидетельство о допуске к определенному виду или видам работ, которые оказывают влияние на безопасность объектов капитального строительства № 01-И-№1403-2 от 13.11.12г.
- Мониторинг окружающей среды участка 
   расположения полигона ТБО «Солопово»;
- Постоянный контроль за поступающими 
  отходами, в т. ч. дозиметрический;
- Создание аварийного запаса грунта;
- Создание полосы огнезащиты;
- Уборка прилегающих к полигону территорий;
- Соблюдение технологии размещения отходов 
   в теле полигона;
- Строительство технологической дороги.
Ежегодный мониторинг.                                              ЗАО ""Спецгеоэкология»"". 
Свидетельство о допуске к определенному виду или видам работ, которые оказывают влияние на безопасность объектов капитального строительства № 01-И-№1403-2 от 13.11.12г.
- Мониторинг окружающей среды участка 
   расположения полигона ТБО «Солопово»;
- Постоянный контроль за поступающими 
  отходами, в т. ч. дозиметрический;
- Создание аварийного запаса грунта;
- Создание полосы огнезащиты;
- Уборка прилегающих к полигону территорий;
- Соблюдение технологии размещения отходов 
   в теле полигона;
- Строительство технологической дороги.
";"Ж/б забор длиной 150м отделяет территорию полигона от с/х угодий.
Земляной вал  по периметру. Колодец для сбора фильтрата с последующей откачкой. Выезд с полигона - через контрольно-дезинфицирующую ванну, заполненную опилками, пропитанными раствором лизола.
Ж/б забор длиной 150м отделяет территорию полигона от с/х угодий.
Земляной вал  по периметру. Колодец для сбора фильтрата с последующей откачкой. Выезд с полигона - через контрольно-дезинфицирующую ванну, заполненную опилками, пропитанными раствором лизола.
";нет;;;не включен;нет
5;"полигон ТБО «Воловичи», Коломенский м.р.;";Коломенский муниципальный район;г. Коломна;55.037363;38.660034;;;МУП «Спецавтохозяйство»;5027059963;46631101;не предоставлено;100 000;1 865;;;"1. Проводится филиалом ФГУЗ «Центр гигиены и эпидемиологии в Московской области в г. Коломна, Коломенском, Луховицком  районах  Московской области. Договор № 466 от 04.12.2013 г., срок действия до 31.12.2014 г.
2. ЗАО «Спецгеоэкология» договор № 48/13 от 17.12.2013 года.
1. Проводится филиалом ФГУЗ «Центр гигиены и эпидемиологии в Московской области в г. Коломна, Коломенском, Луховицком  районах  Московской области. Договор № 466 от 04.12.2013 г., срок действия до 31.12.2014 г.
2. ЗАО «Спецгеоэкология» договор № 48/13 от 17.12.2013 года.
";"По всему периметру сетка «рабица» в рамах из угловой стали на ж/б столбах.Водоносный горизонт мячковско - подольских известняков защищен мощной толщей глинистых грунтов с водопроницаемостью менее 0,0000001 м/сутки.
Геомембрана из резинополимерного материала системы «Р-Пласт» толщиной 2 мм. 
Фильтрат собирается в нагорной траншее и пруде-накопителе, откачивается ассенизационными машинами и разливается на тело полигона для увлажнения, поступление фильтрата в подземные и поверхностные воды не происходит. Имеется КПП, проводится дезинфекция колёс выезжающих транспортных средств препаратом «Бриллиант».По всему периметру сетка «рабица» в рамах из угловой стали на ж/б столбах.Водоносный горизонт мячковско - подольских известняков защищен мощной толщей глинистых грунтов с водопроницаемостью менее 0,0000001 м/сутки.
Геомембрана из резинополимерного материала системы «Р-Пласт» толщиной 2 мм. 
Фильтрат собирается в нагорной траншее и пруде-накопителе, откачивается ассенизационными машинами и разливается на тело полигона для увлажнения, поступление фильтрата в подземные и поверхностные воды не происходит. Имеется КПП, проводится дезинфекция колёс выезжающих транспортных средств препаратом «Бриллиант».";Лицензия №077 052 от 08.12.2015 г. МУП «Спецавтохозяйство»;;;50-00008-З-00592-250914;нет
6;"полигон ТБО «Астапово», Луховицкий м.р.;";Луховицкий муниципальный район;д. Астапово;54.861353;38.943674;;; МУП «Луховицкое РКБХ»;5072003151;46630101;507201001;23 000;40 000;ТКО;;"Мониторинг проводится филиалом ФБУЗ «Центр гигиены и эпидемиологии в Московской области в г.Коломна, Коломенском, Луховицком, Зарайском, Озерском районах;
- ФБУ «Центр лабораторного анализа и технических измерений по Центральному Федеральному округу» Росприроднадзора по ЦФО.
Мониторинг проводится филиалом ФБУЗ «Центр гигиены и эпидемиологии в Московской области в г.Коломна, Коломенском, Луховицком, Зарайском, Озерском районах;
- ФБУ «Центр лабораторного анализа и технических измерений по Центральному Федеральному округу» Росприроднадзора по ЦФО.
";Не предоставлено;Лицензия №№117 от 24.04.2012 г. МУП «Луховицкое РКБХ»;;;50-00014-З-00272-310315;
7;"полигон ТБО «Торбеево», Люберецкий м.р.;";Люберецкий муниципальный район;пос. Красково;55.691719;38.045424;;;"ООО ""ЭНИТ""";5027034630;46631165;502701001;370 000;5 954 992 000;ТКО;;Мониторинг полигона проводится ежеквартально испытательной лабораторией Филиала Федерального бюджетного учреждения здравоохранения «Центр гигиены и эпидемиологии в Московской  области» в г. Дзержинский, Лыткарино, Люберецком районе, имеющей аттестат аккредитации испытательной лаборатории центра №ГСЭН.RU.ЦОА.023.21. Аттестат аккредитации зарегистрирован в Государственном реестре 20 июля 2012г. №РОСС.0001.511699 и действителен до 20 июля 2017г. – испытательным лабораторным центром (АИЛЦ) филиала федерального государственного учреждения здравоохранения «Центр гигиены и эпидемиологии в Московской области». Договор № 10.Л./2013/Г/48 от 28.03.2013 г.;Забор ж/б и профнастил, земляная дамба, противофильтрационный экран, Имеется дез. ванна, пункт мойки колес и очистка выездного участка поливомоечной машиной.На въезде - установка радиационного контроля РИГ-08ПМ-2. Дозиметр мощности экспозиционный дозы широкодиапазонный носимый ДРГ-01Т1 поверен 16.09.2014г. Прибор сцинтилляционный геологоразведочный СРП 68-01 поверен 16.09.2014г. ;"Лицензия № №077 024 от 27.08.2013 г. ООО ""ЭНИТ""";;;50-00009-З-00692-311014;Мусоросортировочный комплекс ЭНИТ Люберецкий
8; полигон ТБО «Храброво», Можайский м.р.;Можайский муниципальный район;дер. Храброво;55.438738;35.646354;;;МУП «Полигон»;5028025269;46633419;502801001;;1 236 000;;;Исследования уровня загрязнения почвы, воздуха, воды согласно утвержденным в установленном порядке планом-графика;Территория полигона ограждена сетчатым забором, административно-хозяйственная часть – бетонным забором. Сбор фильтрата на территории полигона ТБО «Храброво» производится в колодец для сбора фильтрата с последующей откачки. При выезде с полигона имеется дезинфекционная ванна, заполненная опилками и 3% раствором хлорной извести дезинфекции колес. При въезде все автомашины проходят дозиметрический контроль. Дозиметр гамма-излучения ДКГ-02У «АРБИТР-М», заводской номер -2513;Лицензия № № 077 012 от 16.04.2013 г. МУП «Полигон»;;2006;50-00021-З-00625-310715;нет
9; полигон ТБО «Каргашино», Мытищинский м.р.;Мытищинский муниципальный район;г. Мытищи;55.965883;37.763236;;;"МУП ""Полигон""";5029055629;46634101;502901001;100 000;1 969 900;;;Договор на 2014г.  № 3 от 03.01.14г. «СЗПН МО» г. Сергиев Посад на проведение исследования воды, почвы, воздуха, замеры шума. Аттестат аккредитации испытательной лаборатории № РОСС RU.0001.517730 от 2.03.2010г.;"По территории производственной зоны проложена дорожная сеть с твердым и усовершенствованным покрытием к сооружениям и зданиям полигона, технологические площадки для открытой стоянки дорожно-строительной техники и ремзоны оборудованы. Дренажные колодцы, с откачкой на тело полигона (увлажнение ТБО). 
На полигоне организованы сборники фильтрата
Имеется дезванна с лизолом для дезобработки колес автомобилейПо территории производственной зоны проложена дорожная сеть с твердым и усовершенствованным покрытием к сооружениям и зданиям полигона, технологические площадки для открытой стоянки дорожно-строительной техники и ремзоны оборудованы. Дренажные колодцы, с откачкой на тело полигона (увлажнение ТБО). 
На полигоне организованы сборники фильтрата
Имеется дезванна с лизолом для дезобработки колес автомобилей";"Лицензия № 077 116 от 28.12.2015 г. МУП ""Полигон""";;1984;50-00003-З-00479-010814;Мусороперегрузочная станция Мытищинский Каргашено
10;полигон ТБО «Тимохово», Ногинский м.р.;Ногинский муниципальный район;г. Ногинск;55.757521;38.273070;;;ОАО «ПОЛИГОН ТИМОХОВО»;5031009637;46639101;503101001;1 150 000;42 500 000;;;ЦЛАТИ Росприроднадзора по ЦФО РФ, НИИ атмосферного воздуха им.Сысина, Санитарно-эпидемиологическая лаборатория Роспотребнадзора Московской области;Тело полигона имеет противофильтрационный экран, состоящий из тугоплавких пород глины, исключающий проникновение жидкости за территорию полигона. Фильтрат с тела полигона поступает в обводной канал, имеющий противофильтрационное покрытие дна и вала, исключающее выход фильтрата, расположенный по периметру всей территории полигона. Часть фильтрата используется для увлажнения и орошения тела полигона. Фильтрат из канала поступает на очистные сооружения очистки фильтрата системы обратный осмос мощностью 660 м3 в сутки. Ванна с опилками и дезраствором. ;Лицензия № 077 184 от 23.07.2012 г. ОАО «ПОЛИГОН ТИМОХОВО»;;1977;50-00002-З-00479-010814;Мусоросортировочная линия ООО Эко-втор Тимохово Ногинский
11; полигон ТБО «Озеры», Озерский м.р.;Озерский муниципальный район;г. Озеры;;;;;"ООО ""ЭКОТЕХ""";5022095750;;503301001;195 000;975 000;;;"Мониторинг проводится. Есть договор с ФБУ ""Центр лабораторного анализа и технических исследований по ЦФО""";Не предоставлено;"Лицензия №41 от 09.02.2012 г. ООО ""ЭКОТЕХ""";;2012; 50-00001-З-00479-010814;нет
12;" полигон ТБО «Малая Дубня», Орехово-Зуево г.о.;";Орехово-Зуевский городской округ;г Орехово-Зуево;55.890216;38.929723;;;" МУП ""О/З ГПКХиБ""";5034060173;46757000;503401001;100 000;100 000;;;"В соответствии с  заключенными договорами проводятся  ежеквартальные наблюдения:
 - в санитарно-защитной зоне полигона ФГУЗ «Центр гигиены и эпидемиологии в Московской области» В соответствии с  заключенными договорами проводятся  ежеквартальные наблюдения:
 - в санитарно-защитной зоне полигона ФГУЗ «Центр гигиены и эпидемиологии в Московской области» ";Частичное ограждение северо-западной части полигона. Есть частичное ограждение хозяйственной зоны. Водоотводная канава по периметру полигона, сбор в пруд-накопитель, далее последующая перекачка для увлажнения рабочей зоны. ;"Лицензия № 077 067 от 21.12.2015 г. МУП ""О/З ГПКХиБ""";;;50-00004-З-00479-010814;Мусоросортировочный комплекс Экопромтех Орехово-Зуевский
13;" полигон ТБО «Царево», Пушкинский м.р.;";Пушкинский муниципальный район;г Пушкино;56.067796;38.092198;;;" ОАО ""Экопром""";5038029061;46647101;503801001;200 000;4 000 000;;;Режимные эколого-геохимические исследования осуществляются в соответствии с техническим заданием к договору мониторинга окружающей среды;Ограждение, система сбора фильтрата, контрольно-дизенфекционная зона, входной контроль поступающих отходов, противофильтрационный экран естественный, производство систематической откачки фильтрата.;"Лицензия № 077 006 от 21.02.2013 г. ОАО ""Экопром""";;1984;50-00011-З-00692-311014;Мусоросортировочный комплекс ООО Экон Пушкино
14;"полигон ТБО «Шатурский», Шатурский м.р.;";Шатурский муниципальный район;г. Шатура;55.553320;39.524071;;;"ООО ""ПОЛИГОН-СЕРВИС+""";5049020938;46657101;;80 000;1 010 000;;;Мониторинг сточных вод, атмосферного воздуха, почвы  проводится  аккредитованной  испытательной  лабораторией Клязьминского  отдела ФГУ « ЦЛАТИ» по ЦФО;Железобетонное ограждение, протяженностью 500метров. По всему периметру  полигона земляной вал и дренажная канававодонепроницаемый глиняный экран,   заключен договор на сбор фильтрата, осуществляется визуальный, радиологический контроль  состава поступающих отходов на полигон ТКО.;"Лицензия № 077 120 от 28.12.2015 г. ООО ""ПОЛИГОН-СЕРВИС+""";;;50-00006-З-00592-250914;Мусоросортировочная станция ОАО Полигон Сервис Шатурский
15; полигон ТБО «Егорьевский», Егорьевский м.р.;Егорьевский муниципальный район;г. Егорьевск;55.409652;39.039444;;;"ООО ""ПромЭкоСпецТехнологии""";5011027525;46612101;501101001;25 000;950 000 000;;;не представлено;"наличие и состояние элементов инфраструктуры полигона ТБО: ограждений; дренажного коллектора для перехвата, сбора и отвода фильтрата; оградительной дамбы, дезинфекционной ванны и ряда других объектов";"Лицензия № 077 136 от 30.12.2015 г. ООО ""ПромЭкоСпецТехнологии""";;1964г.;не включен;Прессовый пунк ООО ПромЭкоСпецТехнологии Егорьевск
16; полигон ТБО «Алексинский карьер», Клинский м.р.;Клинский муниципальный район;г Клин;56.357794;36.800037;;;"МУП ""Чистый город""";5020042431;46621101;502001001;270 000;6 260 000;;;не представлено;Не предоставлено;"Лицензия № 077 020 от 16.07.2013 г. МУП ""Чистый город""";;1993 г.;50-00022-З-00625-310715;нет
17; полигон ТБО «Каурцево», Наро-Фоминский м.р.;Фоминский муниципальный район;д. Каурцево;55.290161;36.679969;;;"ОАО ""ЭкоКомплекс-Наро-Фоминск""";5030046523;46638101;503001001;не представлено;209 450 000;;;На полигоне ТБО у д. Каурцево заключен договор об оказании услуг        № 2404/Г от 25.05.2012г. с ФГУЗ «Центр гигиены и эпидемиологии в МО» в Наро-Фоминском районе. ;Территории    полигона    площадью    6,3    га    ограждена забором из железобетонных плит, по верху забора установлено защитное ограждение типа «Егоза».  Котлованы  №  1,2,3  ограждены дамбой шириной 3 м. Сбор фильтрата    осуществляется в специальных колодцах с последующим вывозом по договору с МУП «Водоканал». Дренажная система предусмотрена;"Лицензия № 077 022 от 07.07.2015 г. ОАО ""ЭкоКомплекс-Наро-Фоминск""";;2007;не включен;нет
18;полигон ТБО «Часцы», Одинцовский м.р.;Одинцовский муниципальный район;г. Одинцово;55.624821;36.911006;;;"ОАО ""Одинцовское КХиБ""";5032199980;46641101;503201001;731 167 600;414 693 000;;;Мониторинг проводитсяПроводится ЗАО «Геоспецэкология»;Имеется ограждение, , система сбора фильтрата;"Лицензия № 077 от 21.12.2015 г. ОАО ""Одинцовское КХиБ""";;1974;не включен;нет
19; полигон ТБО «Аннино», Рузский  м.р.;Рузский  муниципальный район;г. Руза;55.759256;36.365792;;;ОАО «Рузский РСК»;5075369588;46649101;507501001;54 000;493 000;;;Имеется договора на проведение мониторинга;"наличие и состояние элементов инфраструктуры полигона ТБО: ограждений; дренажного коллектора для перехвата, сбора и отвода фильтрата; оградительной дамбы, дезинфекционной ванны и ряда других объектов";Лицензия № 077 058 от 11.12.2015 г. ОАО «Рузский РСК»;;2006;не включен;"Мусоросортировочный комплекс полигон ТБО ""Анино"""
20;полигон ТБО «Съяново-1», Серпуховскийм.р.;Серпуховский муниципальный район;С ПЕТРОВО-ДАЛЬНЕЕ;55.755660;37.200314;;;ООО «Первая Гильдия»;5024032473;46623404;502401001;56 000;1 197 690;;;ФБУ здравоохранения «ЦГЭМО» и ФБУ «ЦЛАТИ по ЦФО»;"наличие и состояние элементов инфраструктуры полигона ТБО: ограждений; дренажного коллектора для перехвата, сбора и отвода фильтрата; оградительной дамбы, дезинфекционной ванны и ряда других объектов";Отсутствует ;;2000;50-00026-З-01028-181215;Мусоросортировочный комплекс ООО Первая Гильдия Серпуховский мр
21;" полигон ТБО «Лесная», Серпуховскийм.р.;";Серпуховский муниципальный район;п. Большевик;54.926929;37.334317;;;ООО «СКАЙВЭЙ»;5077017430;46651416;507701001;300 000;3 952 400;;;Проводит ФБУЗ «ЦЛАТИ», Союз Защиты экологических прав населения Московской области, ООО «Аналитик»;Не предоставлено;Отсутствует ;;2012;50-0023-З-00625-310715;нет
22; полигон ТБО «Кулаковский», Чеховский м.р.;Чеховский муниципальный район;г. Чехов;55.108383;37.448141;;;"ПАО ""ПромЭкоТех""";5048034367;;504801001;60 000;780 000;;;"ФБУ «Центр лабораторного анализа и технических измерений по ЦФО» по договору № 27/к от 03.06.2014 года
ФГУЗ «Центр гигиены и эпидемиологии в Московской области» по договору № ММОБ-СР-87 от 18.03.2014 года
Департамент Федеральной Службы по надзору в сфере природопользования по ЦФО (Росприроднадзор)
Отдел экологии Администрации Чеховского муниципального района
Государственный  Административно-технический надзор МО, территориальный отдел № 36
ГУ Министерства РФ по делам гражданской обороны, чрезвычайным ситуациям и ликвидации последствий стихийных бедствий по Московской области
";"наличие  ограждений; административно-хозяйственных построек, дезинфекционной ванны и ряда других объектов.";"Лицензия № 077 007 от 11.03.2015 г. ПАО ""ПромЭкоТех""";;1959;50-0020-З-00625-310715;нет
23;полигон ТБО «Сабурово», Щелковский м.р;Щелковский  муниципальный район; г. Щелково;55.925713;38.041759;;;"ООО ""ЭПЩ""";5050075480;;505001001;120 000;2 244 000;;;ФГУ «Центр лабораторного анализа и технических измерений по ЦФО»;"наличие  ограждений; административно-хозяйственных построек, дезинфекционной ванны и ряда других объектов.";"Лицензия № 077 021 от 07.07.2015 г. ООО ""ЭПЩ""";;2004;50-00025-З-00964-011215;нет
