37.569539,56.441351,3
38.018964,55.911865,3
37.724618,55.930527,3
38.474685,55.870829,3
35.943443,56.043560,3
37.223640,56.718744,3
36.856568,55.910416,3
37.418314,54.992708,3
37.783249,55.986563,3
37.393702,55.914119,3
38.012003,55.678330,3
38.044219,54.903601,3
38.465352,55.807928,3
38.425183,55.767584,3
38.141623,56.285792,3
38.156143,54.892151,3
37.935754,55.417423,3
37.295728,55.967186,3
38.280021,55.556517,3
37.918960,55.771074,3
39.542394,55.559291,3
37.844922,55.951529,3
39.026420,55.358800,3
38.951224,55.837483,3
38.505166,55.872568,3
38.325952,55.857737,3
36.220939,55.697165,3
37.921045,55.588062,3
38.083555,55.553707,3
38.019221,55.815706,3
37.461896,55.947775,3
37.948112,55.734992,3
36.043087,56.023225,3
37.557187,56.32285,3
38.753556,54.780199,3
38.660034,55.037363,1
35.646354,55.438738,1
37.763236,55.965883,3
38.273070,55.757521,1
38.929723,55.890216,1
38.092198,56.067796,3
39.524071,55.553320,1
39.039444,55.409652,1
36.800037,56.357794,1
36.679969,55.290161,1
36.911006,55.624821,3
36.365792,55.759256,1
37.200314,55.755660,3
37.334317,54.926929,3
37.448141,55.108383,3
38.041759,55.925713,1
